<?xml version="1.0" encoding="utf-8"?>
<!-- Generator: Adobe Illustrator 16.0.0, SVG Export Plug-In . SVG Version: 6.00 Build 0)  -->
<!DOCTYPE svg PUBLIC "-//W3C//DTD SVG 1.1//EN" "http://www.w3.org/Graphics/SVG/1.1/DTD/svg11.dtd">
<svg version="1.1" id="Layer_1" xmlns="http://www.w3.org/2000/svg" xmlns:xlink="http://www.w3.org/1999/xlink" x="0px" y="0px"
	 width="256.735px" height="210.541px" viewBox="0 0 256.735 210.541" enable-background="new 0 0 256.735 210.541"
	 xml:space="preserve">
<path fill="#FFC124" d="M231.541,87.789c0-11.613-9.414-21.027-21.026-21.027c-11.614,0-21.028,9.414-21.028,21.027
	s9.414,21.028,21.028,21.028C222.127,108.817,231.541,99.402,231.541,87.789"/>
<path fill="#673434" d="M210.514,112.652c-13.709,0-24.861-11.155-24.861-24.863c0-13.709,11.152-24.862,24.861-24.862
	s24.861,11.153,24.861,24.862C235.375,101.497,224.223,112.652,210.514,112.652 M210.514,70.596
	c-9.479,0-17.192,7.713-17.192,17.193c0,9.479,7.713,17.193,17.192,17.193s17.193-7.714,17.193-17.193
	C227.707,78.309,219.993,70.596,210.514,70.596"/>
<path fill="#FFC124" d="M217.857,26.862c0-9.845-7.979-17.825-17.824-17.825c-9.844,0-17.824,7.98-17.824,17.825
	c0,9.844,7.98,17.825,17.824,17.825C209.878,44.688,217.857,36.707,217.857,26.862"/>
<path fill="#FFFFFF" d="M217.857,26.862c0-9.845-7.979-17.825-17.824-17.825c-9.844,0-17.824,7.98-17.824,17.825
	c0,9.844,7.98,17.825,17.824,17.825C209.878,44.688,217.857,36.707,217.857,26.862"/>
<path fill="#FFFFFF" d="M217.857,26.862c0-9.845-7.979-17.825-17.824-17.825c-9.844,0-17.824,7.98-17.824,17.825
	c0,9.844,7.98,17.825,17.824,17.825C209.878,44.688,217.857,36.707,217.857,26.862"/>
<path fill="#673434" d="M200.033,48.521c-11.941,0-21.658-9.716-21.658-21.66c0-11.943,9.717-21.658,21.658-21.658
	c11.943,0,21.66,9.715,21.66,21.658C221.693,38.806,211.977,48.521,200.033,48.521 M200.033,12.873
	c-7.713,0-13.989,6.276-13.989,13.989c0,7.715,6.276,13.991,13.989,13.991c7.715,0,13.991-6.276,13.991-13.991
	C214.024,19.148,207.748,12.873,200.033,12.873"/>
<path fill="#FFFFFF" d="M107.382,36.959c0-8.263-6.699-14.961-14.961-14.961c-8.263,0-14.962,6.698-14.962,14.961
	S84.158,51.92,92.421,51.92C100.683,51.92,107.382,45.222,107.382,36.959"/>
<path fill="#FFFFFF" d="M107.382,36.959c0-8.263-6.699-14.961-14.961-14.961c-8.263,0-14.962,6.698-14.962,14.961
	S84.158,51.92,92.421,51.92C100.683,51.92,107.382,45.222,107.382,36.959"/>
<path fill="#673434" d="M92.42,55.755c-10.364,0-18.796-8.432-18.796-18.796c0-10.364,8.432-18.796,18.796-18.796
	s18.796,8.432,18.796,18.796C111.216,47.323,102.784,55.755,92.42,55.755 M92.42,25.832c-6.135,0-11.127,4.993-11.127,11.127
	c0,6.135,4.992,11.127,11.127,11.127c6.135,0,11.127-4.992,11.127-11.127C103.547,30.825,98.555,25.832,92.42,25.832"/>
<path fill="#673434" d="M92.42,55.755c-10.364,0-18.796-8.432-18.796-18.796c0-10.364,8.432-18.796,18.796-18.796
	s18.796,8.432,18.796,18.796C111.216,47.323,102.784,55.755,92.42,55.755 M92.42,25.832c-6.135,0-11.127,4.993-11.127,11.127
	c0,6.135,4.992,11.127,11.127,11.127c6.135,0,11.127-4.992,11.127-11.127C103.547,30.825,98.555,25.832,92.42,25.832"/>
<path fill="#FFC124" d="M102.104,94.075c0-9.844-7.98-17.825-17.825-17.825c-9.844,0-17.824,7.981-17.824,17.825
	c0,9.844,7.98,17.825,17.824,17.825C94.124,111.9,102.104,103.919,102.104,94.075"/>
<path fill="#673434" d="M84.279,115.734c-11.944,0-21.66-9.716-21.66-21.658c0-11.945,9.716-21.66,21.66-21.66
	c11.943,0,21.658,9.715,21.658,21.66C105.937,106.018,96.222,115.734,84.279,115.734 M84.279,80.084
	c-7.715,0-13.991,6.276-13.991,13.991c0,7.713,6.276,13.988,13.991,13.988c7.713,0,13.99-6.275,13.99-13.988
	C98.269,86.36,91.992,80.084,84.279,80.084"/>
<path fill="#673434" d="M163.485,70.537c-2.118,0-3.834-1.717-3.834-3.835V41.115c0-2.118,1.716-3.835,3.834-3.835
	c2.117,0,3.834,1.717,3.834,3.835v25.587C167.319,68.82,165.603,70.537,163.485,70.537 M163.485,30.199
	c-2.118,0-3.834-1.717-3.834-3.834v-5.9c0-2.118,1.716-3.835,3.834-3.835c2.117,0,3.834,1.717,3.834,3.835v5.9
	C167.319,28.482,165.603,30.199,163.485,30.199"/>
<path fill="#673434" d="M125.497,70.537c-2.117,0-3.834-1.717-3.834-3.835V41.115c0-2.118,1.717-3.835,3.834-3.835
	c2.118,0,3.835,1.717,3.835,3.835v25.587C129.332,68.82,127.615,70.537,125.497,70.537 M125.497,30.199
	c-2.117,0-3.834-1.717-3.834-3.834v-5.9c0-2.118,1.717-3.835,3.834-3.835c2.118,0,3.835,1.717,3.835,3.835v5.9
	C129.332,28.482,127.615,30.199,125.497,30.199"/>
<path fill="#673434" d="M144.24,64.816c-2.117,0-3.834-1.717-3.834-3.834V24.484c0-2.118,1.717-3.834,3.834-3.834
	c2.116,0,3.834,1.716,3.834,3.834v36.498C148.074,63.099,146.356,64.816,144.24,64.816 M144.24,13.568
	c-2.117,0-3.834-1.717-3.834-3.834v-5.9c0-2.118,1.717-3.834,3.834-3.834c2.116,0,3.834,1.716,3.834,3.834v5.9
	C148.074,11.851,146.356,13.568,144.24,13.568"/>
<path fill="#FFFFFF" d="M175.451,115.24c0,9.869-4.902,18.608-12.385,23.931h-33.865c-7.481-5.322-12.383-14.062-12.383-23.931
	c0-16.19,13.125-29.316,29.316-29.316S175.451,99.049,175.451,115.24"/>
<path fill="#673434" d="M154.139,145.586l-20.475-2.862c-12.565-5.094-20.682-17.148-20.682-30.709
	c0-18.282,14.871-33.152,33.15-33.152c18.281,0,33.152,14.871,33.152,33.152c0,15.652-9.553,28.731-24.339,33.32L154.139,145.586z
	 M136.111,135.435l17.343,2.321c13.386-4.552,18.162-16.637,18.162-25.741c0-14.053-11.431-25.483-25.483-25.483
	c-14.051,0-25.481,11.431-25.481,25.483C120.651,122.281,126.704,131.422,136.111,135.435"/>
<path fill="#673434" d="M157.564,118.162c0,4.549-3.201,7.391-7.771,8.317v5.916c-1.2,0.211-2.421,0.316-3.663,0.316
	c-1.179,0-2.316-0.105-3.453-0.296v-5.979c-3.41-0.652-6.633-2.127-9.033-4.169l2.569-5.284c2.97,2.631,7.159,4.315,10.19,4.315
	c2.675,0,4.275-0.99,4.275-2.759c0-5.41-15.328-2.252-15.328-12.443c0-4.105,2.842-7.011,7.326-8.042l0.043-6.464
	c1.115-0.169,2.252-0.275,3.41-0.275c1.264,0,2.506,0.106,3.705,0.338l-0.042,6.232c2.843,0.484,5.538,1.495,7.603,2.842
	l-2.485,5.369c-3.054-1.81-6.654-2.947-8.949-2.947c-2.19,0-3.663,0.779-3.663,2.337
	C142.299,110.792,157.605,107.824,157.564,118.162"/>
<path fill="#FFC124" d="M118.612,162.916l54.137,5.035c6.506,0,11.76-5.184,11.899-11.656c0.034-0.104,0.034-0.209,0.034-0.313
	c0-3.306-1.321-6.298-3.479-8.455c-2.156-2.156-5.149-3.514-8.454-3.514L71.95,134.27l-4.976-0.452
	c-0.835-0.068-1.739-0.104-2.609-0.104H49.682v43.771l3.409-0.104c4.35-0.139,8.734,0.557,12.84,2.053l68.37,24.843
	c9.673,3.55,20.32,3.166,29.714-1.044l80.792-35.941c7.202-3.201,10.195-11.83,6.541-18.824c-2.4-4.592-7.132-7.342-12.143-7.342
	c-1.252,0-2.54,0.175-3.827,0.558l-50.729,14.612L118.612,162.916z"/>
<path fill="#FFC124" d="M118.612,162.916l54.137,5.035c6.506,0,11.76-5.184,11.899-11.656c0.034-0.104,0.034-0.209,0.034-0.313
	c0-3.306-1.321-6.298-3.479-8.455c-2.156-2.156-5.149-3.514-8.454-3.514L71.95,134.27l-4.976-0.452
	c-0.835-0.068-1.739-0.104-2.609-0.104H49.682v43.771l3.409-0.104c4.35-0.139,8.734,0.557,12.84,2.053l68.37,24.843
	c9.673,3.55,20.32,3.166,29.714-1.044l80.792-35.941c7.202-3.201,10.195-11.83,6.541-18.824c-2.4-4.592-7.132-7.342-12.143-7.342
	c-1.252,0-2.54,0.175-3.827,0.558l-50.729,14.612L118.612,162.916z"/>
<path fill="#673434" d="M147.889,210.541c-5.026,0-10.062-0.886-14.908-2.662l-68.359-24.841c-3.614-1.317-7.548-1.938-11.408-1.823
	l-3.416,0.104c-1.038,0.046-2.041-0.359-2.787-1.081c-0.744-0.721-1.164-1.715-1.164-2.752v-43.771c0-2.117,1.718-3.834,3.835-3.834
	h14.684c0.975,0,1.991,0.039,2.925,0.117l5.007,0.454l100.648,9.728c4.136,0.052,8.025,1.693,10.971,4.636
	c1.857,1.858,3.192,4.108,3.932,6.567l46.468-13.385c1.563-0.467,3.22-0.707,4.891-0.707c6.556,0,12.509,3.602,15.54,9.398
	c2.235,4.277,2.605,9.34,1.018,13.895c-1.584,4.539-5.01,8.26-9.399,10.211l-80.791,35.942
	C159.928,209.268,153.916,210.541,147.889,210.541 M54.214,173.528c4.454,0,8.831,0.772,13.03,2.304l68.366,24.842
	c8.774,3.215,18.306,2.884,26.836-0.941l80.804-35.947c2.498-1.109,4.369-3.145,5.271-5.729c0.906-2.598,0.703-5.372-0.572-7.816
	c-1.703-3.255-5.053-5.279-8.743-5.279c-0.931,0-1.85,0.133-2.735,0.397l-48.312,13.916c-1.474,7.209-7.769,12.511-15.411,12.511
	c-0.117,0-0.236-0.004-0.354-0.016l-54.137-5.034c-2.109-0.196-3.659-2.063-3.463-4.174c0.195-2.109,2.069-3.648,4.174-3.464
	l53.943,5.018c4.327-0.084,7.771-3.486,7.902-7.832c0-0.164,0.011-0.328,0.033-0.49c-0.053-2.123-0.883-4.082-2.354-5.556
	c-1.541-1.539-3.581-2.39-5.743-2.39c-0.123,0-0.246-0.006-0.367-0.016L66.626,137.636c-0.703-0.058-1.496-0.088-2.261-0.088h-10.85
	v35.985C53.75,173.529,53.982,173.528,54.214,173.528"/>
<rect x="3.835" y="118.009" fill="#FFFFFF" width="45.856" height="76.904"/>
<rect x="3.835" y="118.009" fill="#FFFFFF" width="45.856" height="76.904"/>
<path fill="#673434" d="M53.525,198.748H0v-84.572h53.525V198.748z M7.669,191.08h38.187v-69.233H7.669V191.08z"/>
<path fill="#673434" d="M32.769,175.175c0-3.316-2.689-6.006-6.006-6.006c-3.317,0-6.006,2.689-6.006,6.006s2.689,6.006,6.006,6.006
	C30.08,181.181,32.769,178.492,32.769,175.175"/>
</svg>
