<?xml version="1.0" encoding="utf-8"?>
<!-- Generator: Adobe Illustrator 16.0.0, SVG Export Plug-In . SVG Version: 6.00 Build 0)  -->
<!DOCTYPE svg PUBLIC "-//W3C//DTD SVG 1.1//EN" "http://www.w3.org/Graphics/SVG/1.1/DTD/svg11.dtd">
<svg version="1.1" id="Layer_1" xmlns="http://www.w3.org/2000/svg" xmlns:xlink="http://www.w3.org/1999/xlink" x="0px" y="0px"
	 width="291.488px" height="280.832px" viewBox="0 0 291.488 280.832" enable-background="new 0 0 291.488 280.832"
	 xml:space="preserve">
<g>
	<path fill="none" stroke="#673434" stroke-width="6" stroke-linecap="round" stroke-linejoin="round" d="M36.922,214.32
		c1.13,1.89,2.306,3.748,3.525,5.573"/>
	
		<path fill="none" stroke="#673434" stroke-width="6" stroke-linecap="round" stroke-linejoin="round" stroke-dasharray="11.35,11.35" d="
		M47.146,229.052c12.961,16.225,29.646,29.344,48.76,38.063"/>
	<path fill="none" stroke="#673434" stroke-width="6" stroke-linecap="round" stroke-linejoin="round" d="M101.117,269.358
		c2.033,0.824,4.091,1.599,6.172,2.323"/>
	<path fill="none" stroke="#673434" stroke-width="6" stroke-linecap="round" stroke-linejoin="round" d="M146.241,13.521
		c-2.209,0.077-4.403,0.208-6.584,0.392"/>
	
		<path fill="none" stroke="#673434" stroke-width="6" stroke-linecap="round" stroke-linejoin="round" stroke-dasharray="12.57,12.57" d="
		M127.199,15.559c-14.723,2.659-28.602,7.745-41.207,14.829"/>
	<path fill="none" stroke="#673434" stroke-width="6" stroke-linecap="round" stroke-linejoin="round" d="M80.588,33.596
		c-1.865,1.168-3.699,2.381-5.501,3.637"/>
	<path fill="none" stroke="#673434" stroke-width="6" stroke-linecap="round" stroke-linejoin="round" d="M279.705,113.571
		c-0.541-2.139-1.134-4.256-1.777-6.352"/>
	
		<path fill="none" stroke="#673434" stroke-width="6" stroke-linecap="round" stroke-linejoin="round" stroke-dasharray="12.973,12.973" d="
		M273.517,95.023c-12.655-30.252-36.186-54.825-65.702-68.831"/>
	<path fill="none" stroke="#673434" stroke-width="6" stroke-linecap="round" stroke-linejoin="round" d="M201.887,23.557
		c-2.025-0.842-4.077-1.635-6.151-2.378"/>
	<path fill="#FFFFFF" d="M206.523,76.979c4.771,0,8.638,3.867,8.638,8.637c0,4.771-3.866,8.637-8.638,8.637"/>
	
		<path fill="none" stroke="#673434" stroke-width="3.674" stroke-linecap="round" stroke-linejoin="round" stroke-miterlimit="10" d="
		M206.523,76.979c4.771,0,8.638,3.867,8.638,8.637c0,4.771-3.866,8.637-8.638,8.637"/>
	<path fill="#FFFFFF" d="M204.796,111.527H174.75c-22.728,0-41.152-18.424-41.152-41.152c0-8.272,2.44-15.973,6.64-22.425
		l25.576-41.793c2.385-4.131,7.667-5.547,11.797-3.161c3.084,1.78,4.655,5.174,4.262,8.499l-0.155,0.897l-7.845,30.039h34.378
		c4.771,0,8.638,3.867,8.638,8.637c0,4.58-3.566,8.328-8.072,8.619l-0.565,0.018c4.771,0,8.638,3.867,8.638,8.637
		s-3.867,8.637-8.638,8.637"/>
	
		<path fill="none" stroke="#673434" stroke-width="3.674" stroke-linecap="round" stroke-linejoin="round" stroke-miterlimit="10" d="
		M204.796,111.527H174.75c-22.728,0-41.152-18.424-41.152-41.152c0-8.272,2.44-15.973,6.64-22.425l25.576-41.793
		c2.385-4.131,7.667-5.547,11.797-3.161c3.084,1.78,4.655,5.174,4.262,8.499l-0.155,0.897l-7.845,30.039h34.378
		c4.771,0,8.638,3.867,8.638,8.637c0,4.58-3.566,8.328-8.072,8.619l-0.565,0.018c4.771,0,8.638,3.867,8.638,8.637
		s-3.867,8.637-8.638,8.637"/>
	<path fill="#FFFFFF" d="M204.796,94.253c4.77,0,8.637,3.867,8.637,8.637s-3.867,8.637-8.637,8.637"/>
	
		<path fill="none" stroke="#673434" stroke-width="3.674" stroke-linecap="round" stroke-linejoin="round" stroke-miterlimit="10" d="
		M204.796,94.253c4.77,0,8.637,3.867,8.637,8.637s-3.867,8.637-8.637,8.637"/>
	<line fill="#FFFFFF" x1="207.56" y1="76.979" x2="193.296" y2="76.979"/>
	
		<line fill="none" stroke="#673434" stroke-width="3.674" stroke-linecap="round" stroke-linejoin="round" stroke-miterlimit="10" x1="207.56" y1="76.979" x2="193.296" y2="76.979"/>
	<line fill="#FFFFFF" x1="204.451" y1="94.253" x2="193.296" y2="94.253"/>
	
		<line fill="none" stroke="#673434" stroke-width="3.674" stroke-linecap="round" stroke-linejoin="round" stroke-miterlimit="10" x1="204.451" y1="94.253" x2="193.296" y2="94.253"/>
	<polyline fill="#FFFFFF" points="193.296,59.705 206.95,59.705 208.25,59.705 	"/>
	
		<polyline fill="none" stroke="#673434" stroke-width="3.674" stroke-linecap="round" stroke-linejoin="round" stroke-miterlimit="10" points="
		193.296,59.705 206.95,59.705 208.25,59.705 	"/>
	<path fill="#FFFFFF" d="M118.509,134.775v130.309c0,7.578,6.558,13.727,14.656,13.739l105.919,0.172l0.163-139.137"/>
	
		<path fill="none" stroke="#673434" stroke-width="3.674" stroke-linecap="round" stroke-linejoin="round" stroke-miterlimit="10" d="
		M118.509,134.775v130.309c0,7.578,6.558,13.727,14.656,13.739l105.919,0.172l0.163-139.137"/>
	<path fill="#FFFFFF" d="M118.497,135.299c0-7.729,6.695-13.994,14.953-13.994c8.259,0,14.953,6.265,14.953,13.994v125.563v6.646
		l116.72,0.281V137.157H148.748"/>
	
		<path fill="none" stroke="#673434" stroke-width="3.674" stroke-linecap="round" stroke-linejoin="round" stroke-miterlimit="10" d="
		M118.497,135.299c0-7.729,6.695-13.994,14.953-13.994c8.259,0,14.953,6.265,14.953,13.994v125.563v6.646l116.72,0.281V137.157
		H148.748"/>
	<path fill="#FFFFFF" d="M118.509,263.385c0-7.685,6.74-14.164,14.95-14.164s14.944,6.228,14.944,13.912"/>
	
		<path fill="none" stroke="#673434" stroke-width="3.674" stroke-linecap="round" stroke-linejoin="round" stroke-miterlimit="10" d="
		M118.509,263.385c0-7.685,6.74-14.164,14.95-14.164s14.944,6.228,14.944,13.912"/>
	<path fill="#F7B936" d="M224.346,171.493c0,7.499-6.07,13.578-13.558,13.578c-7.488,0-13.559-6.079-13.559-13.578
		c0-7.5,6.07-13.579,13.559-13.579C218.276,157.914,224.346,163.993,224.346,171.493"/>
	<path fill="#673434" d="M202.782,178.712c-8.386,0-15.207-6.83-15.207-15.226c0-8.397,6.821-15.228,15.207-15.228
		s15.207,6.83,15.207,15.228C217.989,171.882,211.167,178.712,202.782,178.712 M202.782,151.556c-6.567,0-11.91,5.353-11.91,11.931
		s5.343,11.929,11.91,11.929s11.91-5.351,11.91-11.929S209.349,151.556,202.782,151.556"/>
	<line fill="#FFFFFF" x1="165.717" y1="191.339" x2="239.071" y2="191.339"/>
	
		<line fill="none" stroke="#673434" stroke-width="3.674" stroke-linecap="round" stroke-linejoin="round" stroke-miterlimit="10" x1="165.717" y1="191.339" x2="239.071" y2="191.339"/>
	<line fill="#FFFFFF" x1="165.717" y1="203.525" x2="220.125" y2="203.525"/>
	
		<line fill="none" stroke="#673434" stroke-width="3.674" stroke-linecap="round" stroke-linejoin="round" stroke-miterlimit="10" x1="165.717" y1="203.525" x2="220.125" y2="203.525"/>
	<line fill="#FFFFFF" x1="165.486" y1="215.13" x2="233.579" y2="215.13"/>
	
		<line fill="none" stroke="#673434" stroke-width="3.674" stroke-linecap="round" stroke-linejoin="round" stroke-miterlimit="10" x1="165.486" y1="215.13" x2="233.579" y2="215.13"/>
	<rect x="205.574" y="223.066" fill="#F7B936" width="85.914" height="44.273"/>
	<path fill="#673434" d="M283.481,260.982h-85.913c-0.912,0-1.649-0.738-1.649-1.648V215.06c0-0.91,0.737-1.648,1.649-1.648h85.913
		c0.911,0,1.648,0.738,1.648,1.648v44.273C285.129,260.244,284.392,260.982,283.481,260.982 M199.215,257.685h82.617v-40.978
		h-82.617V257.685z"/>
	<line fill="#FFFFFF" x1="240.308" y1="224.282" x2="273.411" y2="224.282"/>
	
		<line fill="none" stroke="#673434" stroke-width="3.674" stroke-linecap="round" stroke-linejoin="round" stroke-miterlimit="10" x1="240.308" y1="224.282" x2="273.411" y2="224.282"/>
	<line fill="#FFFFFF" x1="240.308" y1="232.858" x2="273.411" y2="232.858"/>
	
		<line fill="none" stroke="#673434" stroke-width="3.674" stroke-linecap="round" stroke-linejoin="round" stroke-miterlimit="10" x1="240.308" y1="232.858" x2="273.411" y2="232.858"/>
	<line fill="#FFFFFF" x1="240.308" y1="241.433" x2="273.411" y2="241.433"/>
	
		<line fill="none" stroke="#673434" stroke-width="3.674" stroke-linecap="round" stroke-linejoin="round" stroke-miterlimit="10" x1="240.308" y1="241.433" x2="273.411" y2="241.433"/>
	<line fill="#FFFFFF" x1="270.167" y1="250.009" x2="273.411" y2="250.009"/>
	
		<line fill="none" stroke="#673434" stroke-width="3.674" stroke-linecap="round" stroke-linejoin="round" stroke-miterlimit="10" x1="270.167" y1="250.009" x2="273.411" y2="250.009"/>
	<line fill="#FFFFFF" x1="251.295" y1="250.009" x2="262.57" y2="250.009"/>
	
		<line fill="none" stroke="#673434" stroke-width="3.674" stroke-linecap="round" stroke-linejoin="round" stroke-miterlimit="10" x1="251.295" y1="250.009" x2="262.57" y2="250.009"/>
	<line fill="#FFFFFF" x1="240.308" y1="250.009" x2="243.806" y2="250.009"/>
	
		<line fill="none" stroke="#673434" stroke-width="3.674" stroke-linecap="round" stroke-linejoin="round" stroke-miterlimit="10" x1="240.308" y1="250.009" x2="243.806" y2="250.009"/>
	<path fill="#673434" d="M229.528,236.152c0,6.066-4.91,10.984-10.968,10.984s-10.969-4.918-10.969-10.984
		s4.911-10.984,10.969-10.984S229.528,230.085,229.528,236.152"/>
	<rect x="242.351" y="138.517" fill="#F7B936" width="46.523" height="46.635"/>
	<path fill="#673434" d="M280.869,178.795h-46.524c-0.91,0-1.649-0.739-1.649-1.649V130.51c0-0.91,0.739-1.648,1.649-1.648h46.524
		c0.91,0,1.648,0.738,1.648,1.648v46.636C282.517,178.056,281.779,178.795,280.869,178.795 M235.993,175.499h43.228v-43.339h-43.228
		V175.499z"/>
	
		<polyline fill="none" stroke="#673434" stroke-width="3.674" stroke-linecap="round" stroke-linejoin="round" stroke-miterlimit="10" points="
		247.654,153.694 258.632,164.765 269.796,142.623 	"/>
	<polygon fill="#F7B936" points="113.214,198.985 96.113,190.862 88.235,208.076 64.322,139.337 89.3,130.246 	"/>
	<path fill="#673434" d="M78.227,202.719c-0.025,0-0.051,0-0.078-0.001c-0.672-0.033-1.258-0.471-1.479-1.105l-23.913-68.74
		c-0.296-0.852,0.146-1.783,0.994-2.092l24.979-9.091c0.413-0.151,0.873-0.13,1.271,0.061c0.399,0.189,0.705,0.53,0.85,0.947
		l23.913,68.738c0.218,0.628,0.039,1.326-0.457,1.771c-0.495,0.443-1.208,0.548-1.807,0.262l-15.589-7.406l-7.184,15.695
		C79.458,202.345,78.87,202.719,78.227,202.719 M56.406,133.324l22.03,63.328l6.171-13.482c0.184-0.402,0.521-0.713,0.936-0.864
		c0.413-0.151,0.872-0.129,1.271,0.062l13.54,6.432l-22.068-63.437L56.406,133.324z"/>
	<polygon fill="#FFFFFF" points="28.402,200.65 21.093,179.402 1.837,190.98 26.339,123.662 52.904,133.331 	"/>
	
		<polygon fill="none" stroke="#673434" stroke-width="3.674" stroke-linecap="round" stroke-linejoin="round" stroke-miterlimit="10" points="
		28.402,200.65 21.093,179.402 1.837,190.98 26.339,123.662 52.904,133.331 	"/>
	<path fill="#F7B936" d="M63.482,150.445c-5.058,0-8.315-11-12.879-12.482c-4.73-1.536-13.82,5.395-17.757,2.53
		c-3.976-2.894-0.177-13.7-3.071-17.676c-2.865-3.937-14.331-3.647-15.866-8.377c-1.482-4.563,7.916-11.049,7.916-16.106
		c0-5.058-9.398-11.544-7.916-16.108c1.536-4.73,13.001-4.44,15.866-8.377c2.894-3.976-0.904-14.781,3.072-17.675
		c3.937-2.865,13.027,4.065,17.757,2.53c4.564-1.482,7.82-12.482,12.878-12.482s8.314,11,12.878,12.482
		c4.73,1.535,13.821-5.395,17.758-2.53c3.976,2.894,0.177,13.7,3.071,17.676c2.865,3.937,14.33,3.647,15.866,8.377
		c1.482,4.564-7.916,11.049-7.916,16.107s9.398,11.543,7.916,16.107c-1.536,4.73-13.001,4.44-15.866,8.377
		c-2.895,3.976,0.904,14.781-3.072,17.675c-3.937,2.866-13.027-4.066-17.757-2.529C71.796,139.445,68.541,150.445,63.482,150.445"/>
	<path fill="#673434" d="M53.474,145.087c-3.623,0-6.111-3.65-8.517-7.183c-1.559-2.286-3.325-4.878-4.871-5.38
		c-1.662-0.537-4.713,0.542-7.404,1.498c-3.934,1.397-8.004,2.842-10.814,0.796c-2.839-2.066-2.716-6.411-2.597-10.612
		c0.08-2.832,0.171-6.042-0.837-7.427c-0.986-1.354-4.04-2.247-6.733-3.035c-4.065-1.188-8.269-2.417-9.368-5.801
		c-1.055-3.251,1.55-6.636,4.069-9.911c1.766-2.295,3.767-4.894,3.767-6.706c0-1.81-2.001-4.411-3.767-6.705
		c-2.519-3.274-5.124-6.661-4.069-9.911c1.099-3.385,5.304-4.613,9.369-5.802c2.693-0.788,5.747-1.68,6.733-3.036
		c1.007-1.384,0.916-4.594,0.836-7.425c-0.118-4.202-0.241-8.547,2.599-10.613c2.807-2.046,6.877-0.601,10.812,0.797
		c2.69,0.955,5.741,2.041,7.405,1.497c1.546-0.501,3.311-3.093,4.87-5.379c2.406-3.531,4.894-7.183,8.517-7.183
		c3.624,0,6.113,3.652,8.519,7.183c1.559,2.287,3.324,4.878,4.87,5.38c1.667,0.539,4.715-0.542,7.404-1.498
		c3.935-1.397,8.004-2.842,10.814-0.797c2.839,2.066,2.716,6.412,2.598,10.613c-0.08,2.832-0.171,6.041,0.836,7.425
		c0.986,1.357,4.04,2.249,6.734,3.037c4.064,1.189,8.267,2.417,9.367,5.801c1.055,3.251-1.55,6.637-4.069,9.911
		c-1.766,2.294-3.767,4.895-3.767,6.705c0,1.812,2.001,4.412,3.767,6.707c2.519,3.274,5.124,6.66,4.069,9.909
		c-1.1,3.385-5.304,4.615-9.369,5.804c-2.693,0.787-5.746,1.68-6.732,3.035c-1.008,1.385-0.917,4.594-0.837,7.426
		c0.118,4.202,0.241,8.546-2.599,10.612c-2.807,2.046-6.876,0.602-10.812-0.797c-2.691-0.955-5.742-2.04-7.406-1.497
		c-1.545,0.502-3.311,3.093-4.869,5.379C59.585,141.437,57.098,145.087,53.474,145.087 M39.036,129.086
		c0.723,0,1.416,0.091,2.068,0.303c2.619,0.85,4.541,3.672,6.578,6.66c1.833,2.691,3.913,5.742,5.792,5.742
		c1.88,0,3.959-3.051,5.793-5.742c2.037-2.988,3.959-5.81,6.577-6.659c2.735-0.888,6.188,0.341,9.527,1.526
		c2.984,1.061,6.368,2.259,7.768,1.238c1.434-1.044,1.333-4.661,1.242-7.852c-0.1-3.524-0.202-7.166,1.468-9.461
		c1.647-2.264,5.117-3.278,8.473-4.26c3.092-0.903,6.597-1.929,7.157-3.655c0.519-1.598-1.64-4.404-3.546-6.881
		c-2.188-2.844-4.45-5.785-4.45-8.718c0-2.932,2.262-5.873,4.449-8.716c1.907-2.476,4.066-5.284,3.547-6.881
		c-0.56-1.726-4.064-2.75-7.156-3.655c-3.356-0.981-6.827-1.996-8.474-4.261c-1.67-2.293-1.567-5.936-1.467-9.458
		c0.091-3.193,0.193-6.81-1.242-7.855c-1.404-1.02-4.786,0.179-7.769,1.238c-3.341,1.188-6.797,2.415-9.526,1.528
		c-2.619-0.851-4.541-3.672-6.577-6.66c-1.835-2.691-3.914-5.742-5.794-5.742c-1.879,0-3.959,3.051-5.792,5.742
		c-2.037,2.988-3.959,5.809-6.577,6.659c-2.732,0.886-6.185-0.34-9.526-1.527c-2.983-1.058-6.366-2.257-7.769-1.238
		c-1.435,1.044-1.333,4.662-1.242,7.854c0.1,3.522,0.203,7.165-1.467,9.459c-1.647,2.264-5.118,3.279-8.474,4.26
		C9.535,72.978,6.03,74.003,5.47,75.73c-0.519,1.597,1.641,4.405,3.546,6.881c2.188,2.844,4.45,5.784,4.45,8.716
		c0,2.933-2.262,5.873-4.451,8.717c-1.905,2.477-4.064,5.283-3.545,6.882c0.56,1.725,4.065,2.751,7.157,3.654
		c3.355,0.982,6.826,1.996,8.473,4.26c1.67,2.295,1.567,5.937,1.467,9.46c-0.09,3.192-0.192,6.809,1.242,7.853
		c1.402,1.019,4.785-0.179,7.77-1.238C34.121,130.012,36.729,129.086,39.036,129.086"/>
	<path fill="#FFFFFF" d="M86.097,91.328c0,18.017-14.605,32.623-32.623,32.623c-18.016,0-32.622-14.606-32.622-32.623
		s14.606-32.622,32.622-32.622C71.492,58.706,86.097,73.311,86.097,91.328"/>
	
		<circle fill="none" stroke="#673434" stroke-width="3.674" stroke-linecap="round" stroke-linejoin="round" stroke-miterlimit="10" cx="53.474" cy="91.328" r="32.623"/>
</g>
</svg>
