<?xml version="1.0" encoding="utf-8"?>
<!-- Generator: Adobe Illustrator 16.0.0, SVG Export Plug-In . SVG Version: 6.00 Build 0)  -->
<!DOCTYPE svg PUBLIC "-//W3C//DTD SVG 1.1//EN" "http://www.w3.org/Graphics/SVG/1.1/DTD/svg11.dtd">
<svg version="1.1" id="Layer_1" xmlns="http://www.w3.org/2000/svg" xmlns:xlink="http://www.w3.org/1999/xlink" x="0px" y="0px"
	 width="148.118px" height="156.039px" viewBox="0 0 148.118 156.039" enable-background="new 0 0 148.118 156.039"
	 xml:space="preserve">
<path fill="#F7B936" d="M79.024,9.129H13.24c-2.271,0-4.112,1.841-4.112,4.111v6.168v30.837c0,2.271,1.841,4.111,4.112,4.111h8.223
	l16.446,14.391V54.356h41.116c2.271,0,4.111-1.841,4.111-4.111V19.408V13.24C83.136,10.97,81.295,9.129,79.024,9.129"/>
<path fill="#F7B936" d="M62.16,49.024c0-5.535,1.492-10.552,4.315-14.267c-0.997-0.284-2.046-0.445-3.135-0.445
	c-6.314,0-11.432,5.118-11.432,11.432c0,6.314,5.118,11.433,11.432,11.433c0.006,0,0.012-0.001,0.018-0.001
	C62.568,54.673,62.16,51.92,62.16,49.024"/>
<path fill="#F7B936" d="M98.325,49.017c0-5.535-1.492-10.551-4.314-14.266c0.996-0.285,2.045-0.446,3.135-0.446
	c6.313,0,11.432,5.118,11.432,11.433c0,6.313-5.118,11.433-11.432,11.433c-0.006,0-0.012-0.001-0.019-0.001
	C97.917,54.667,98.325,51.914,98.325,49.017"/>
<polygon fill="#FFFFFF" points="85.37,107.849 75.515,107.849 63.18,81.874 97.704,81.874 "/>
<path fill="#FFFFFF" d="M84.892,110.692l13.336-29.675c5.545,0,21.631,0.38,23.346,15.627l6.854,52.422l-95.446,0.856L39.835,97.5
	c1.714-15.246,17.8-15.627,23.345-15.627l13.145,28.989L84.892,110.692z"/>
<path fill="#F7B936" d="M116.342,114.11c-3.813-0.127-55.381-0.059-58.26-0.004c-4.281,0.082-3.811,4.047-3.811,4.047l4.975,31.425
	h0.012v6.461h56.004v-6.512l4.968-31.374C120.229,118.153,120.931,114.262,116.342,114.11"/>
<path fill="#F7B936" d="M54.758,121.231c0.484-0.883,1.419-1.692,3.323-1.729c2.879-0.055,54.446-0.123,58.259,0.004
	c1.928,0.063,2.914,0.788,3.42,1.604l0.468-2.958c0,0,0.702-3.891-3.888-4.043c-3.813-0.127-55.38-0.059-58.259-0.004
	c-4.28,0.082-3.81,4.047-3.81,4.047L54.758,121.231z"/>
<path fill="#673434" d="M108.274,152.179H52.271c-1.136,0-2.056-0.92-2.056-2.056v-6.33c0-1.136,0.92-2.056,2.056-2.056
	c1.135,0,2.055,0.92,2.055,2.056v4.274h51.892v-4.274c0-1.136,0.922-2.056,2.057-2.056s2.057,0.92,2.057,2.056v6.33
	C110.331,151.259,109.409,152.179,108.274,152.179"/>
<path fill="#673434" d="M108.269,145.719c-0.105,0-0.215-0.009-0.323-0.026c-1.12-0.177-1.887-1.23-1.71-2.351l4.975-31.425
	c0.028-0.193,0.037-0.793-0.252-1.138c-0.264-0.316-0.856-0.503-1.672-0.531c-3.888-0.124-55.757-0.05-58.152-0.002
	c-0.7,0.015-1.188,0.167-1.448,0.456c-0.351,0.392-0.376,1.104-0.356,1.323l4.96,31.316c0.178,1.12-0.588,2.174-1.709,2.351
	c-1.119,0.19-2.175-0.588-2.352-1.708l-4.975-31.426c-0.042-0.343-0.271-2.718,1.324-4.547c0.724-0.831,2.088-1.831,4.478-1.877
	c2.405-0.044,54.46-0.129,58.367,0.006c2.611,0.087,4.021,1.171,4.744,2.066c1.502,1.86,1.144,4.142,1.097,4.396l-4.966,31.381
	C110.137,144.997,109.263,145.719,108.269,145.719"/>
<path fill="#673434" d="M146.062,152.179H14.493c-1.136,0-2.056-0.92-2.056-2.056c0-1.137,0.92-2.056,2.056-2.056h131.569
	c1.135,0,2.057,0.919,2.057,2.056C148.118,151.259,147.196,152.179,146.062,152.179"/>
<path fill="#FFFFFF" d="M62.545,49.409c0,11.436,6.312,20.706,17.749,20.706c11.435,0,17.746-9.271,17.746-20.706
	c0-11.435-6.312-20.705-17.746-20.705C68.857,28.704,62.545,37.974,62.545,49.409"/>
<path fill="#673434" d="M80.293,72.171c-11.845,0-19.803-9.146-19.803-22.763c0-13.613,7.958-22.76,19.803-22.76
	c11.845,0,19.803,9.146,19.803,22.76C100.096,63.025,92.138,72.171,80.293,72.171 M80.293,30.76
	c-11.582,0-15.691,10.046-15.691,18.648c0,8.604,4.109,18.65,15.691,18.65s15.69-10.046,15.69-18.65
	C95.983,40.806,91.875,30.76,80.293,30.76"/>
<path fill="#673434" d="M83.165,84.09h-5.916c-1.135,0-2.056-0.92-2.056-2.056s0.921-2.056,2.056-2.056h5.916
	c1.135,0,2.056,0.92,2.056,2.056S84.3,84.09,83.165,84.09"/>
<path fill="#673434" d="M80.208,109.906c-1.136,0-2.057-0.92-2.057-2.056V82.035c0-1.137,0.921-2.056,2.057-2.056
	c1.135,0,2.056,0.919,2.056,2.056v25.815C82.264,108.986,81.343,109.906,80.208,109.906"/>
<path fill="#673434" d="M32.607,152.051c-0.089,0-0.179-0.007-0.27-0.019c-1.126-0.146-1.918-1.179-1.772-2.305l6.855-52.422
	c0.89-7.924,6.02-17.416,25.383-17.416c0.809,0,1.542,0.474,1.874,1.211l11.626,25.808c0.468,1.035,0.005,2.252-1.03,2.72
	c-1.035,0.464-2.252,0.004-2.718-1.029L61.481,84.018c-12.431,0.293-18.972,4.81-19.979,13.784l-6.859,52.46
	C34.507,151.296,33.623,152.051,32.607,152.051"/>
<path fill="#673434" d="M128.048,151.194c-1.018,0-1.9-0.755-2.037-1.789l-6.854-52.422c-1.012-9.01-7.554-13.529-19.987-13.822
	l-11.541,25.412c-0.47,1.036-1.688,1.495-2.723,1.021c-1.034-0.468-1.491-1.687-1.021-2.72L95.979,80.24
	c0.333-0.735,1.066-1.207,1.872-1.207c19.36,0,24.491,9.492,25.387,17.454l6.851,52.384c0.146,1.127-0.646,2.158-1.771,2.305
	C128.227,151.188,128.136,151.194,128.048,151.194"/>
<path fill="#673434" d="M63.412,59.04c-7.345,0-13.319-5.975-13.319-13.32c0-7.344,5.974-13.318,13.319-13.318
	c1.277,0,2.539,0.181,3.748,0.535c1.089,0.32,1.713,1.462,1.394,2.551c-0.32,1.09-1.456,1.712-2.552,1.395
	c-0.833-0.244-1.705-0.369-2.59-0.369c-5.077,0-9.208,4.131-9.208,9.207c0,5.077,4.131,9.209,9.208,9.209
	c1.135,0,2.056,0.919,2.056,2.056C65.468,58.12,64.547,59.04,63.412,59.04"/>
<path fill="#673434" d="M97.204,59.04c-1.136,0-2.057-0.92-2.057-2.056c0-1.137,0.921-2.056,2.057-2.056
	c5.076,0,9.207-4.132,9.207-9.209c0-5.076-4.131-9.207-9.207-9.207c-0.814,0-1.617,0.104-2.39,0.313
	c-1.097,0.295-2.224-0.355-2.519-1.452c-0.297-1.096,0.354-2.224,1.451-2.52c1.119-0.301,2.283-0.453,3.457-0.453
	c7.345,0,13.318,5.975,13.318,13.318C110.522,53.065,104.549,59.04,97.204,59.04"/>
<path fill="#673434" d="M104.374,38.391c-0.975,0-1.84-0.694-2.021-1.688c-1.797-9.901-11.07-17.086-22.045-17.086
	s-20.247,7.185-22.044,17.086c-0.203,1.119-1.262,1.855-2.39,1.656c-1.118-0.204-1.858-1.274-1.656-2.391
	c2.155-11.856,13.128-20.463,26.091-20.463s23.937,8.606,26.09,20.463c0.203,1.116-0.537,2.187-1.654,2.391
	C104.619,38.381,104.496,38.391,104.374,38.391"/>
<path fill="#673434" d="M80.308,64.67H54.025c-1.135,0-2.056-0.919-2.056-2.056v-9.207c0-1.136,0.921-2.056,2.056-2.056
	c1.136,0,2.056,0.92,2.056,2.056v7.151h24.226c1.136,0,2.057,0.92,2.057,2.056C82.364,63.751,81.443,64.67,80.308,64.67"/>
<path fill="#A28379" d="M26.725,30.836h-2.056c-1.135,0-2.056-0.919-2.056-2.056c0-1.136,0.921-2.056,2.056-2.056h2.056
	c1.135,0,2.056,0.92,2.056,2.056C28.781,29.917,27.859,30.836,26.725,30.836"/>
<path fill="#A28379" d="M41.115,30.836h-2.056c-1.135,0-2.055-0.919-2.055-2.056c0-1.136,0.92-2.056,2.055-2.056h2.056
	c1.135,0,2.056,0.92,2.056,2.056C43.171,29.917,42.25,30.836,41.115,30.836"/>
<path fill="#673434" d="M30.836,63.729c-0.489,0-0.972-0.175-1.354-0.508L13.617,49.338h-7.45C2.766,49.338,0,46.573,0,43.171V6.167
	C0,2.767,2.766,0,6.167,0h65.784c3.401,0,6.168,2.767,6.168,6.167v4.112c0,1.137-0.921,2.056-2.056,2.056
	c-1.136,0-2.057-0.919-2.057-2.056V6.167c0-1.134-0.922-2.055-2.056-2.055H6.167c-1.133,0-2.056,0.921-2.056,2.055v37.004
	c0,1.135,0.923,2.056,2.056,2.056h8.223c0.498,0,0.979,0.181,1.354,0.508L28.78,57.142v-9.859c0-1.136,0.921-2.056,2.056-2.056
	h20.557c1.135,0,2.055,0.92,2.055,2.056s-0.92,2.056-2.055,2.056H32.892v12.335c0,0.808-0.472,1.538-1.207,1.87
	C31.413,63.668,31.124,63.729,30.836,63.729"/>
</svg>
