<?xml version="1.0" encoding="utf-8"?>
<!-- Generator: Adobe Illustrator 16.0.0, SVG Export Plug-In . SVG Version: 6.00 Build 0)  -->
<!DOCTYPE svg PUBLIC "-//W3C//DTD SVG 1.1//EN" "http://www.w3.org/Graphics/SVG/1.1/DTD/svg11.dtd">
<svg version="1.1" id="Layer_1" xmlns="http://www.w3.org/2000/svg" xmlns:xlink="http://www.w3.org/1999/xlink" x="0px" y="0px"
	 width="262.162px" height="254.283px" viewBox="0 0 262.162 254.283" enable-background="new 0 0 262.162 254.283"
	 xml:space="preserve">
<path fill="#FFFFFF" d="M213.01,157.824c25.849-4.322,45.588-26.805,45.588-53.941c0-30.17-24.519-54.646-54.689-54.646
	c-7.521,0-14.711,1.496-21.234,4.239c-5.61-28.467-30.752-49.91-60.839-49.91c-34.242,0-61.919,27.719-62.044,61.961
	c-2.95-0.54-6.025-0.872-9.226-0.872c-25.932,0-47,20.985-47,46.958c0,25.974,21.068,47.001,47,47.001h12.841L213.01,157.824z"/>
<path fill="#673434" d="M50.565,162.179C22.684,162.179,0,139.495,0,111.612c0-29.776,25.855-53.618,56.367-50.195
	C58.609,27.193,87.163,0,121.835,0c29.842,0,55.859,20.242,63.395,48.7c5.97-2.013,12.233-3.029,18.68-3.029
	c32.121,0,58.253,26.114,58.253,58.213c0,28.587-20.425,52.751-48.564,57.456l-0.568,0.049l-149.604,0.79H50.565z M50.565,68.219
	c-23.95,0-43.437,19.467-43.437,43.394c0,23.951,19.486,43.437,43.437,43.437h12.842l149.292-0.789
	c24.546-4.241,42.333-25.382,42.333-50.376c0-28.168-22.933-51.083-51.123-51.083c-6.924,0-13.604,1.333-19.854,3.961l-4.033,1.696
	l-0.847-4.294C173.805,26.91,149.689,7.13,121.835,7.13c-32.128,0-58.361,26.203-58.479,58.409l-0.015,4.262l-4.192-0.768
	C56.155,68.484,53.347,68.219,50.565,68.219"/>
<path fill="#FFC124" d="M50.565,155.049c-23.95,0-43.437-19.485-43.437-43.437c0-23.927,19.486-43.394,43.437-43.394
	c2.778,0,5.586,0.266,8.583,0.814l4.193,0.768l0.015-4.261c0.117-32.207,26.351-58.41,58.479-58.41
	c27.854,0,51.97,19.78,57.343,47.034l0.845,4.294l4.034-1.696c6.247-2.628,12.928-3.961,19.853-3.961
	c28.19,0,51.123,22.915,51.123,51.081c0,24.802-17.675,45.967-42.026,50.324l-0.607,0.056l-148.989,0.787H50.565z M50.565,75.349
	c-20.021,0-36.306,16.268-36.306,36.264c0,20.02,16.285,36.306,36.306,36.306H63.39l148.657-0.785
	c20.795-3.865,35.855-22.007,35.855-43.251c0-24.234-19.735-43.95-43.993-43.95c-5.971,0-11.721,1.145-17.088,3.403l-12.102,5.088
	l-2.539-12.88c-4.716-23.92-25.888-41.283-50.346-41.283c-28.211,0-51.245,23.016-51.349,51.306L70.44,78.351l-12.575-2.305
	C55.295,75.578,52.908,75.349,50.565,75.349"/>
<path fill="#673434" d="M99.645,41.906c0-2.168-1.757-3.925-3.925-3.925c-2.167,0-3.925,1.757-3.925,3.925
	c0,2.167,1.758,3.924,3.925,3.924C97.888,45.83,99.645,44.073,99.645,41.906"/>
<path fill="#673434" d="M99.645,55.41c0-2.167-1.757-3.924-3.925-3.924c-2.167,0-3.925,1.757-3.925,3.924
	c0,2.168,1.758,3.925,3.925,3.925C97.888,59.335,99.645,57.578,99.645,55.41"/>
<path fill="#673434" d="M99.645,68.915c0-2.167-1.757-3.924-3.925-3.924c-2.167,0-3.925,1.757-3.925,3.924s1.758,3.925,3.925,3.925
	C97.888,72.84,99.645,71.082,99.645,68.915"/>
<path fill="#673434" d="M113.305,41.906c0-2.168-1.757-3.925-3.924-3.925c-2.168,0-3.926,1.757-3.926,3.925
	c0,2.167,1.758,3.924,3.926,3.924C111.548,45.83,113.305,44.073,113.305,41.906"/>
<path fill="#673434" d="M113.305,55.41c0-2.167-1.757-3.924-3.924-3.924c-2.168,0-3.926,1.757-3.926,3.924
	c0,2.168,1.758,3.925,3.926,3.925C111.548,59.335,113.305,57.578,113.305,55.41"/>
<path fill="#673434" d="M113.305,68.915c0-2.167-1.757-3.924-3.924-3.924c-2.168,0-3.926,1.757-3.926,3.924s1.758,3.925,3.926,3.925
	C111.548,72.84,113.305,71.082,113.305,68.915"/>
<path fill="#673434" d="M140.297,41.906c0-2.168-1.757-3.925-3.924-3.925c-2.168,0-3.926,1.757-3.926,3.925
	c0,2.167,1.758,3.924,3.926,3.924C138.54,45.83,140.297,44.073,140.297,41.906"/>
<path fill="#673434" d="M140.297,55.41c0-2.167-1.757-3.924-3.924-3.924c-2.168,0-3.926,1.757-3.926,3.924
	c0,2.168,1.758,3.925,3.926,3.925C138.54,59.335,140.297,57.578,140.297,55.41"/>
<path fill="#673434" d="M140.297,68.915c0-2.167-1.757-3.924-3.924-3.924c-2.168,0-3.926,1.757-3.926,3.924s1.758,3.925,3.926,3.925
	C138.54,72.84,140.297,71.082,140.297,68.915"/>
<path fill="#673434" d="M127.106,41.906c0-2.168-1.757-3.925-3.924-3.925c-2.168,0-3.925,1.757-3.925,3.925
	c0,2.167,1.757,3.924,3.925,3.924C125.35,45.83,127.106,44.073,127.106,41.906"/>
<path fill="#673434" d="M127.106,55.41c0-2.167-1.757-3.924-3.924-3.924c-2.168,0-3.925,1.757-3.925,3.924
	c0,2.168,1.757,3.925,3.925,3.925C125.35,59.335,127.106,57.578,127.106,55.41"/>
<path fill="#673434" d="M127.106,68.915c0-2.167-1.757-3.924-3.924-3.924c-2.168,0-3.925,1.757-3.925,3.924s1.757,3.925,3.925,3.925
	C125.35,72.84,127.106,71.082,127.106,68.915"/>
<path fill="#673434" d="M153.958,41.906c0-2.168-1.758-3.925-3.925-3.925s-3.926,1.757-3.926,3.925c0,2.167,1.759,3.924,3.926,3.924
	S153.958,44.073,153.958,41.906"/>
<path fill="#673434" d="M153.958,55.41c0-2.167-1.758-3.924-3.925-3.924s-3.926,1.757-3.926,3.924c0,2.168,1.759,3.925,3.926,3.925
	S153.958,57.578,153.958,55.41"/>
<path fill="#673434" d="M153.958,68.915c0-2.167-1.758-3.924-3.925-3.924s-3.926,1.757-3.926,3.924s1.759,3.925,3.926,3.925
	S153.958,71.082,153.958,68.915"/>
<polygon fill="#673434" points="108.52,218.821 96.002,241.021 82.926,219.146 "/>
<polygon fill="#673434" points="162.853,218.821 150.336,241.021 137.259,219.146 "/>
<rect x="93.289" y="114.325" fill="#FFFFFF" width="59.175" height="59.175"/>
<path fill="#673434" d="M156.028,177.066H89.723v-66.306h66.306V177.066z M96.854,169.935h52.045v-52.044H96.854V169.935z"/>
<polygon fill="#673434" points="109.507,112.897 102.377,112.897 102.377,100.111 53.06,100.111 53.06,92.981 109.507,92.981 "/>
<polygon fill="#673434" points="109.507,208.34 45.004,208.34 45.004,201.21 102.377,201.21 102.377,174.02 109.507,174.02 "/>
<polygon fill="#673434" points="59.289,183.946 64.601,189.649 47.993,204.767 63.377,219.568 58.066,225.271 36.561,204.767 "/>
<polygon fill="#673434" points="200.663,208.34 136.162,208.34 136.162,174.02 143.292,174.02 143.292,201.21 200.663,201.21 "/>
<polygon fill="#673434" points="186.379,183.946 181.066,189.649 197.676,204.767 182.291,219.568 187.603,225.271 209.107,204.767 
	"/>
<rect x="119.312" y="174.019" fill="#673434" width="7.13" height="80.265"/>
<rect x="110.613" y="131.648" fill="#FFC124" width="24.526" height="24.526"/>
<path fill="#673434" d="M138.705,159.741h-31.656v-31.657h31.656V159.741z M114.178,152.611h17.396v-17.397h-17.396V152.611z"/>
<path fill="#673434" d="M219.164,102.867c-6.994,0-12.684-5.688-12.684-12.681s5.689-12.681,12.684-12.681
	c6.992,0,12.681,5.688,12.681,12.681S226.156,102.867,219.164,102.867 M219.164,84.636c-3.063,0-5.553,2.489-5.553,5.551
	c0,3.061,2.49,5.551,5.553,5.551c3.061,0,5.551-2.49,5.551-5.551C224.715,87.125,222.225,84.636,219.164,84.636"/>
<path fill="#FFC124" d="M210.372,126.781c0-5.035-4.082-9.116-9.116-9.116c-5.035,0-9.117,4.081-9.117,9.116
	s4.082,9.116,9.117,9.116C206.29,135.897,210.372,131.816,210.372,126.781"/>
<path fill="#673434" d="M201.255,139.463c-6.992,0-12.681-5.688-12.681-12.681c0-6.994,5.688-12.683,12.681-12.683
	s12.682,5.688,12.682,12.683C213.937,133.774,208.247,139.463,201.255,139.463 M201.255,121.229c-3.062,0-5.551,2.491-5.551,5.553
	c0,3.061,2.489,5.552,5.551,5.552s5.551-2.491,5.551-5.552C206.806,123.721,204.316,121.229,201.255,121.229"/>
<polygon fill="#673434" points="167.861,129.827 151.945,129.827 151.945,122.697 164.06,122.697 188.195,86.751 213.193,86.751 
	213.193,93.881 191.997,93.881 "/>
<rect x="165.96" y="122.697" fill="#673434" width="25.692" height="7.13"/>
<path fill="#673434" d="M63.906,139.463c-6.992,0-12.681-5.688-12.681-12.681c0-6.994,5.688-12.683,12.681-12.683
	s12.682,5.688,12.682,12.683C76.588,133.774,70.898,139.463,63.906,139.463 M63.906,121.229c-3.061,0-5.551,2.491-5.551,5.553
	c0,3.061,2.49,5.552,5.551,5.552c3.062,0,5.552-2.491,5.552-5.552C69.458,123.721,66.968,121.229,63.906,121.229"/>
<path fill="#FFC124" d="M34.546,97.583c0-5.034,4.082-9.116,9.116-9.116c5.035,0,9.117,4.082,9.117,9.116
	c0,5.035-4.082,9.116-9.117,9.116C38.628,106.699,34.546,102.618,34.546,97.583"/>
<path fill="#673434" d="M43.663,110.265c-6.994,0-12.683-5.688-12.683-12.681c0-6.994,5.688-12.683,12.683-12.683
	c6.992,0,12.681,5.688,12.681,12.683C56.344,104.576,50.655,110.265,43.663,110.265 M43.663,92.031
	c-3.062,0-5.553,2.491-5.553,5.553c0,3.061,2.491,5.551,5.553,5.551c3.061,0,5.551-2.49,5.551-5.551
	C49.214,94.522,46.724,92.031,43.663,92.031"/>
<polygon fill="#673434" points="128.599,112.897 121.469,112.897 121.469,86.749 149.443,86.749 149.443,93.879 128.599,93.879 "/>
<path fill="#FFC124" d="M167.958,91.351c0-5.035-4.082-9.116-9.116-9.116c-5.035,0-9.116,4.081-9.116,9.116s4.081,9.116,9.116,9.116
	C163.876,100.467,167.958,96.386,167.958,91.351"/>
<path fill="#673434" d="M158.842,104.031c-6.992,0-12.681-5.688-12.681-12.681s5.688-12.681,12.681-12.681
	s12.681,5.688,12.681,12.681S165.834,104.031,158.842,104.031 M158.842,85.8c-3.063,0-5.551,2.49-5.551,5.551
	s2.488,5.552,5.551,5.552c3.061,0,5.551-2.491,5.551-5.552S161.902,85.8,158.842,85.8"/>
<rect x="71.164" y="122.699" fill="#673434" width="22.938" height="7.13"/>
</svg>
