<svg id="ico_24_payment_money" data-name="ico / 24 / payment / money" xmlns="http://www.w3.org/2000/svg" width="51" height="38" viewBox="0 0 51 38">
  <rect id="Bounding_box" data-name="Bounding box" width="51" height="38" fill="rgba(255,255,255,0)"/>
  <path id="Icon_color" data-name="Icon color" d="M44.65,30H2.35A2.155,2.155,0,0,1,0,28.125V1.875A2.155,2.155,0,0,1,2.35,0h42.3A2.155,2.155,0,0,1,47,1.875v26.25A2.155,2.155,0,0,1,44.65,30ZM14.1,3.75c0,4.136-4.217,7.5-9.4,7.5v7.5c5.183,0,9.4,3.366,9.4,7.5H32.9c0-4.135,4.217-7.5,9.4-7.5v-7.5c-5.182,0-9.4-3.366-9.4-7.5Zm9.4,16.875c-3.887,0-7.049-2.523-7.049-5.624S19.613,9.376,23.5,9.376,30.549,11.9,30.549,15,27.387,20.624,23.5,20.624Z" transform="translate(2 4)" fill="#c2c2c2"/>
</svg>
