<svg id="new_release_outlined" xmlns="http://www.w3.org/2000/svg" width="24" height="24" viewBox="0 0 24 24">
  <rect id="Bounding_box" data-name="Bounding box" width="24" height="24" fill="rgba(255,255,255,0)"/>
  <path id="Icon_color" data-name="Icon color" d="M12.764,20a3.242,3.242,0,0,1-1.174-.22l-.46-.17a3.316,3.316,0,0,0-2.321,0l-.46.17A3.258,3.258,0,0,1,4.2,18.069l-.2-.45a3.3,3.3,0,0,0-1.62-1.679l-.45-.2a3.273,3.273,0,0,1-1.711-4.15l.17-.46a3.2,3.2,0,0,0,0-2.32l-.17-.46A3.272,3.272,0,0,1,1.928,4.2l.45-.2A3.31,3.31,0,0,0,4,2.38l.23-.45A3.259,3.259,0,0,1,8.38.22l.46.17A3.3,3.3,0,0,0,10,.6h.03A3.3,3.3,0,0,0,11.191.39l.46-.17A3.259,3.259,0,0,1,15.8,1.93l.2.45A3.315,3.315,0,0,0,17.623,4l.45.23a3.273,3.273,0,0,1,1.71,4.151l-.17.46a3.193,3.193,0,0,0,0,2.319l.17.491a3.271,3.271,0,0,1-1.71,4.15l-.45.2a3.31,3.31,0,0,0-1.681,1.62l-.2.45A3.267,3.267,0,0,1,12.764,20Zm-2.8-2.6h.071a5.023,5.023,0,0,1,1.846.35l.43.159a1.417,1.417,0,0,0,.48.09,1.271,1.271,0,0,0,1.16-.75l.191-.44a5.292,5.292,0,0,1,2.66-2.66l.46-.211a1.245,1.245,0,0,0,.661-1.6l-.17-.491a5.147,5.147,0,0,1,0-3.73l.16-.43a1.291,1.291,0,0,0-.661-1.64l-.44-.19a5.3,5.3,0,0,1-2.66-2.66l-.211-.46A1.251,1.251,0,0,0,12.8,2h-.009a1.168,1.168,0,0,0-.45.09l-.49.17a4.984,4.984,0,0,1-1.808.339H9.965a5.014,5.014,0,0,1-1.845-.35L7.69,2.09A1.439,1.439,0,0,0,7.209,2a1.273,1.273,0,0,0-1.16.75l-.19.44A5.294,5.294,0,0,1,3.188,5.9l-.46.21a1.248,1.248,0,0,0-.651,1.6l.17.49a5.147,5.147,0,0,1,0,3.73l-.16.43A1.293,1.293,0,0,0,2.748,14l.44.14A5.293,5.293,0,0,1,5.849,16.8l.21.46A1.251,1.251,0,0,0,7.2,18h.009a1.168,1.168,0,0,0,.45-.09l.49-.169A4.983,4.983,0,0,1,9.964,17.4Zm1.987-3.293a1.822,1.822,0,0,1-1.27-.437,1.549,1.549,0,0,1-.481-1.2v-.387a1.529,1.529,0,0,1,.475-1.171,1.8,1.8,0,0,1,1.264-.44,1.815,1.815,0,0,1,1.273.436,1.573,1.573,0,0,1,.473,1.213V12.5a1.537,1.537,0,0,1-.468,1.171A1.781,1.781,0,0,1,11.951,14.107Zm-.011-2.653a.548.548,0,0,0-.413.163.651.651,0,0,0-.166.44v.438a.637.637,0,0,0,.172.44.546.546,0,0,0,.418.189.5.5,0,0,0,.564-.49l.005-.55a.66.66,0,0,0-.156-.456A.545.545,0,0,0,11.94,11.453ZM8.578,13.415h0l-.842-.424,3.819-6.112L12.4,7.3,8.578,13.414ZM8.234,9.7a1.818,1.818,0,0,1-1.27-.438,1.547,1.547,0,0,1-.481-1.2V7.683a1.541,1.541,0,0,1,.472-1.171,1.78,1.78,0,0,1,1.267-.446A1.783,1.783,0,0,1,9.5,6.51a1.582,1.582,0,0,1,.467,1.2V8.1A1.533,1.533,0,0,1,9.5,9.262,1.771,1.771,0,0,1,8.234,9.7ZM8.223,7.05a.537.537,0,0,0-.418.173.684.684,0,0,0-.156.472v.4a.652.652,0,0,0,.156.451.55.55,0,0,0,.429.174c.374,0,.564-.241.564-.715v-.32a.691.691,0,0,0-.15-.456A.529.529,0,0,0,8.223,7.05Z" transform="translate(2 2)" fill="#f68f30"/>
</svg>
