<svg xmlns="http://www.w3.org/2000/svg" width="27.97" height="26" viewBox="0 0 27.97 26">
  <path id="Icon_color" data-name="Icon color" d="M20.879,26H7.129A3.825,3.825,0,0,1,3.45,22.945L1.273,13H.637A.644.644,0,0,1,0,12.351v-1.3A.644.644,0,0,1,.637,10.4H5.729L13.075.39A.967.967,0,0,1,13.839,0h.331a.976.976,0,0,1,.763.39L22.279,10.4h5.093a.644.644,0,0,1,.6.649v1.3a.643.643,0,0,1-.636.649h-.6L24.6,22.945A3.818,3.818,0,0,1,20.879,26ZM7.129,23.4H20.872a1.271,1.271,0,0,0,1.241-1.015L24.189,13H3.819l2.037,9.386A1.273,1.273,0,0,0,7.1,23.4ZM14,3.471,8.912,10.4H19.1Z" transform="translate(0 0)" fill="#9ea0a5"/>
</svg>
