<svg xmlns="http://www.w3.org/2000/svg" width="27.97" height="26" viewBox="0 0 27.97 26">
  <path id="Icon_color" data-name="Icon color" d="M20.879,26H7.13a3.826,3.826,0,0,1-3.68-3.055L1.274,13H.636A.644.644,0,0,1,0,12.35v-1.3a.644.644,0,0,1,.636-.65H5.729L13.074.39A.97.97,0,0,1,13.838,0h.331a.967.967,0,0,1,.764.39L22.28,10.4h5.092a.646.646,0,0,1,.6.65v1.3a.644.644,0,0,1-.636.65h-.6L24.6,22.946A3.817,3.817,0,0,1,20.879,26ZM14,3.471,8.912,10.4H19.1Z" transform="translate(0 0)" fill="#9ea0a5"/>
</svg>
