<svg xmlns="http://www.w3.org/2000/svg" width="50.004" height="50" viewBox="0 0 50.004 50">
  <path id="Icon_color" data-name="Icon color" d="M47.508,50H2.495A2.5,2.5,0,0,1,.269,46.375L5,36.9A12.435,12.435,0,0,1,16.175,30H33.83a12.435,12.435,0,0,1,11.178,6.9l4.725,9.475a2.476,2.476,0,0,1-.1,2.432A2.511,2.511,0,0,1,47.508,50ZM25,25A12.5,12.5,0,1,1,37.5,12.5,12.515,12.515,0,0,1,25,25Z" fill="#b5b9c5"/>
</svg>
