<svg xmlns="http://www.w3.org/2000/svg" width="47" height="47" viewBox="0 0 47 47">
  <g id="Group_1382" data-name="Group 1382" transform="translate(-726 -1042)">
    <g id="Group_1380" data-name="Group 1380" transform="translate(-6 8)">
      <circle id="Ellipse_8" data-name="Ellipse 8" cx="23.5" cy="23.5" r="23.5" transform="translate(732 1034)" fill="#c2c2c2"/>
    </g>
    <g id="ico_24_food_drinks_meal_outlined" data-name="ico / 24 / food &amp; drinks / meal_outlined" transform="translate(735 1047)">
      <rect id="Bounding_box" data-name="Bounding box" width="30" height="30" fill="rgba(255,255,255,0)"/>
      <path id="Icon_color" data-name="Icon color" d="M24.751,18.462H.635A.649.649,0,0,1,0,17.8V16.483a.649.649,0,0,1,.635-.66h.634V14.5A11.705,11.705,0,0,1,11.423,2.717V.66A.649.649,0,0,1,12.058,0h1.269a.648.648,0,0,1,.634.66V2.717A11.7,11.7,0,0,1,24.116,14.5v1.319h.635a.648.648,0,0,1,.634.66V17.8A.648.648,0,0,1,24.751,18.462ZM12.692,5.274A9.073,9.073,0,0,0,3.807,14.5v1.319h17.77V14.5A9.073,9.073,0,0,0,12.692,5.274Z" transform="translate(2.308 7.769)" fill="#fafafa"/>
    </g>
  </g>
</svg>
